^lab.asm
D:\Studia\NISKO\AsmLab4\AsmLab4\Debug\lab.obj
^lab.asm
D:\Studia\NISKO\AsmLab4\AsmLab4\Debug\lab.obj
^lab.asm
D:\Studia\NISKO\AsmLab4\AsmLab4\Debug\lab.obj
^lab.asm
D:\Studia\NISKO\AsmLab4\AsmLab4\Debug\lab.obj
^lab.asm
D:\Studia\NISKO\AsmLab4\AsmLab4\Debug\lab.obj
^lab.asm
D:\Studia\NISKO\AsmLab4\AsmLab4\Debug\lab.obj
^lab.asm
D:\Studia\NISKO\AsmLab4\AsmLab4\Debug\lab.obj
